module bitbucket.org/airenas/listgo

go 1.21.4

toolchain go1.21.5

require (
	github.com/airenas/async-api v0.3.51
	github.com/airenas/go-tf-serving-protogen v0.0.0-20231208221030-3233e8bfb345
	github.com/badoux/checkmail v0.0.0-20181210160741-9661bd69e9ad
	github.com/cenkalti/backoff v2.2.1+incompatible
	github.com/confluentinc/confluent-kafka-go v1.0.0
	github.com/facebookgo/grace v0.0.0-20180706040059-75cf19382434
	github.com/fsnotify/fsnotify v1.5.1
	github.com/golang/protobuf v1.5.3
	github.com/google/uuid v1.3.1
	github.com/gorilla/mux v1.7.4
	github.com/gorilla/websocket v1.4.2
	github.com/hashicorp/go-reap v0.0.0-20170704170343-bf58d8a43e7b
	github.com/heirko/go-contrib v0.0.0-20200825160048-11fc5e2235fa
	github.com/heptiolabs/healthcheck v0.0.0-20180807145615-6ff867650f40
	github.com/heralight/logrus_mate v1.0.1
	github.com/jordan-wright/email v4.0.1-0.20210109023952-943e75fe5223+incompatible
	github.com/petergtz/pegomock v2.9.0+incompatible
	github.com/pkg/errors v0.9.1
	github.com/prometheus/client_golang v1.11.1
	github.com/sirupsen/logrus v1.8.1
	github.com/spf13/cobra v0.0.6
	github.com/spf13/viper v1.11.0
	github.com/streadway/amqp v1.0.0
	github.com/stretchr/testify v1.7.1
	go.mongodb.org/mongo-driver v1.7.4
	google.golang.org/grpc v1.59.0
	gopkg.in/yaml.v2 v2.4.0
)

require (
	github.com/airenas/go-app v0.2.2 // indirect
	github.com/mattn/go-colorable v0.1.12 // indirect
	github.com/mattn/go-isatty v0.0.14 // indirect
	google.golang.org/genproto/googleapis/rpc v0.0.0-20230822172742-b8732ec3820d // indirect
	google.golang.org/protobuf v1.31.0 // indirect
)

require (
	github.com/beorn7/perks v1.0.1 // indirect
	github.com/cespare/xxhash/v2 v2.2.0 // indirect
	github.com/davecgh/go-spew v1.1.1 // indirect
	github.com/facebookgo/clock v0.0.0-20150410010913-600d898af40a // indirect
	github.com/facebookgo/ensure v0.0.0-20200202191622-63f1cf65ac4c // indirect
	github.com/facebookgo/freeport v0.0.0-20150612182905-d4adf43b75b9 // indirect
	github.com/facebookgo/httpdown v0.0.0-20180706035922-5979d39b15c2 // indirect
	github.com/facebookgo/stack v0.0.0-20160209184415-751773369052 // indirect
	github.com/facebookgo/stats v0.0.0-20151006221625-1b76add642e4 // indirect
	github.com/facebookgo/subset v0.0.0-20200203212716-c811ad88dec4 // indirect
	github.com/go-stack/stack v1.8.0 // indirect
	github.com/gogap/env_json v0.0.0-20150503135429-86150085ddbe // indirect
	github.com/gogap/env_strings v0.0.1 // indirect
	github.com/golang/snappy v0.0.3 // indirect
	github.com/hashicorp/hcl v1.0.0 // indirect
	github.com/hoisie/redis v0.0.0-20160730154456-b5c6e81454e0 // indirect
	github.com/inconshreveable/mousetrap v1.0.0 // indirect
	github.com/klauspost/compress v1.13.6 // indirect
	github.com/kr/pretty v0.2.0 // indirect
	github.com/labstack/gommon v0.3.1
	github.com/magiconair/properties v1.8.6 // indirect
	github.com/matttproud/golang_protobuf_extensions v1.0.1 // indirect
	github.com/mitchellh/mapstructure v1.4.3 // indirect
	github.com/onsi/gomega v1.17.0 // indirect
	github.com/pelletier/go-toml v1.9.4 // indirect
	github.com/pelletier/go-toml/v2 v2.0.0-beta.8 // indirect
	github.com/pmezard/go-difflib v1.0.0 // indirect
	github.com/prometheus/client_model v0.2.0 // indirect
	github.com/prometheus/common v0.26.0 // indirect
	github.com/prometheus/procfs v0.6.0 // indirect
	github.com/spf13/afero v1.8.2 // indirect
	github.com/spf13/cast v1.4.1 // indirect
	github.com/spf13/jwalterweatherman v1.1.0 // indirect
	github.com/spf13/pflag v1.0.5 // indirect
	github.com/subosito/gotenv v1.2.0 // indirect
	github.com/xdg-go/pbkdf2 v1.0.0 // indirect
	github.com/xdg-go/scram v1.0.2 // indirect
	github.com/xdg-go/stringprep v1.0.2 // indirect
	github.com/youmark/pkcs8 v0.0.0-20181117223130-1be2e3e5546d // indirect
	golang.org/x/crypto v0.12.0 // indirect
	golang.org/x/net v0.14.0 // indirect
	golang.org/x/sync v0.3.0 // indirect
	golang.org/x/sys v0.11.0 // indirect
	golang.org/x/text v0.12.0 // indirect
	gopkg.in/DATA-DOG/go-sqlmock.v1 v1.3.0 // indirect
	gopkg.in/ini.v1 v1.66.4 // indirect
	gopkg.in/yaml.v3 v3.0.0-20210107192922-496545a6307b // indirect
)
